Word,Origin Class,Function Class,English Definition,漢子,Origin
calat,AAS,Qual,smart,,Austroasiatic
can,AAS,O/C,plate,,Austroasiatic
gwahan,AAS,Qual,"brave, courageous",,Austroasiatic
hoytak,AAS,O/C,snail/slug,,Austroasiatic
kampeng,AAS,O/C,wall,壁,Austroasiatic
kang,AAS,Qual,beside,側,Austroasiatic
kaw'i,AAS,O/C,"chair, seat",,Austroasiatic
kel,AAS,O/C,shield,盾; 防牌,Austroasiatic
kem,AAS,O/C,cheek,,Austroasiatic
king,AAS,O/C,ginger,薑,Austroasiatic
kon,AAS,O/C,butt,,Austroasiatic
konok,AAS,O/C,feather,羽,Austroasiatic
kwa,AAS,O/C,fear,,Austroasiatic
langka,AAS,O/C,roof,,Austroasiatic
langkay,AAS,O/C,"body, torso",,Austroasiatic
nakyat,AAS,Qual,ugly,,Austroasiatic
namta,AAS,Action,"cry, weep, tears",,Austroasiatic
pak,AAS,O/C,mouth,口,Austroasiatic
pedan,AAS,O/C,ceiling,,Austroasiatic
pom,AAS,O/C,hair,毛,Austroasiatic
sapan,AAS,O/C,bridge,,Austroasiatic
talang,AAS,O/C,table,,Austroasiatic
tay,AAS,O/C,hands,手,Austroasiatic
tayko,AAS,O/C,fingers,指,Compound
tosu,AAS,Action,fight,,Austroasiatic
tuk,AAS,Qual,cheap,,Austroasiatic
cikcak,AAS/ANS,O/C,lizard,,Compound
lenken,AAS/ANS,O/C,arms,,Compound
pa'ok (fway),AAS/KJS,Action,stir-fry,炒,Compound
tok (fway),AAS/KJS,Action,deep-fry,煎,Compound
dek-sap,AAS/SIN,O/C,"adjective, quality",,Compound
fong,AAS/SIN,O/C,room,室/房,Compound
heng-sap,AAS/SIN,O/C,"action, verb",,Compound
cingi,ALT,O/C,herder,,Altaic
cono,ALT,O/C,wolf,狼,Altaic
honi,ALT,O/C,sheep; goat,羊,Altaic
moli,ALT,O/C,horse,馬,Altaic
syonghol,ALT,O/C,bird of prey,鷹,Altaic
uhe,ALT,O/C,cow,牛,Altaic
alon,ANS,O/C,wave,波,Austronesian
ang'in,ANS,O/C,wind,,Austronesian
apwi,ANS,O/C,fire,,Austronesian
apwiko,ANS,O/C,"hearth, fire place, cooking heat",,Compound
asu,ANS,O/C,"dog, puppy",,Austronesian
awan,ANS,O/C,cloud,,Austronesian
ayam,ANS,O/C,chicken,,Austronesian
babey,ANS,O/C,pig,,Austronesian
badak,ANS,O/C,rhino,,Austronesian
bambu,ANS,O/C,bamboo,,Austronesian
bana(l),ANS,Qual,"yes, true, right",,Austronesian
batu,ANS,O/C,rock,,Austronesian
bawang,ANS,O/C,Alliums,,Austronesian
benci,ANS,Qual,hate,,Austronesian
bunga,ANS,O/C,flower,,Austronesian
buni,ANS,O/C,"sound, noise",,Austronesian
buwaya,ANS,O/C,croc/allegator,,Austronesian
daging,ANS,O/C,"flesh, muscle, meat",,Austronesian
dagu,ANS,O/C,chin,,Austronesian
dala,ANS,O/C,blood,,Austronesian
ding'in,ANS,Qual,"cold, chilled",,Austronesian
gulu,ANS,O/C,thunder,,Austronesian
habuk,ANS,O/C,dust,,Austronesian
hali,ANS,O/C,sun / day,,Austronesian
halimaw,ANS,O/C,tiger,,Austronesian
hang'at,ANS,Qual,"warm, hot",,Austronesian
hatay,ANS,O/C,heart,,Austronesian
hidong,ANS,O/C,nose,,Austronesian
hujan,ANS,O/C,rain,,Austronesian
hutan,ANS,O/C,forest,,Austronesian
ikan,ANS,O/C,fish,,Austronesian
janggut,ANS,O/C,beard,,Austronesian
kacang,ANS,O/C,"nut, peanut",,Austronesian
kaday,ANS,O/C,"store, shop",,Austronesian
kala bawang,ANS,O/C,garlic,,Compound
kambing,ANS,O/C,goat,,Austronesian
katak,ANS,O/C,frog/toad,,Austronesian
kentang,ANS,O/C,potato,,Austronesian
kepala,ANS,O/C,head,,Austronesian
kucing,ANS,O/C,cat; other felines,,Austronesian
kuku,ANS,O/C,nails (anatomy),,Austronesian
kulat,ANS,O/C,"fungi, fungus, mushroom",,Austronesian
kulit,ANS,O/C,"skin, leather",,Austronesian
labip,ANS,O/C,lips,,Austronesian
lang'it,ANS,O/C,sky,,Austronesian
lantay,ANS,O/C,floor,,Austronesian
laot,ANS,O/C,sea,,Austronesian
lema,ANS,Qual,weak,,Austronesian
lida,ANS,O/C,tongue,,Austronesian
lweng,ANS,Qual,yellow,,Austronesian
mala,ANS,Qual,"angry, mad, upset",,Austronesian
mangkuk,ANS,O/C,bowl,,Austronesian
mata,ANS,O/C,eyes,,Austronesian
monyet,ANS,O/C,monkey,,Austronesian
mula,ANS,Qual,cheap,,Austronesian
olasi,ANS,O/C,snake,,Austronesian
palu,ANS,O/C,hammer,,Austronesian
pating,ANS,O/C,Shark,,Austronesian
penyu,ANS,O/C,turtles,,Austronesian
pintu,ANS,O/C,door,,Austronesian
pisaw,ANS,O/C,"knife, dagger, sharp object",,Austronesian
pon,ANS,O/C,tree,,Austronesian
pontiku,ANS,O/C,squirrel,,Austronesian
sala,ANS,Qual,"no, false, incorrect",,Austronesian
sampa,ANS,O/C,"trash, garbage",,Austronesian
senang,ANS,Qual,happy,,Austronesian
tahon,ANS,O/C,year,,Austronesian
takut,ANS,Qual,"afraid, scared",,Austronesian
tana,ANS,O/C,"earth, soil",,Austronesian
tasik,ANS,O/C,lake; inland sea,,Austronesian
telinga,ANS,O/C,ears,,Austronesian
teluk,ANS,O/C,bay,,Austronesian
tiku,ANS,O/C,"mouse, rat",,Austronesian
fao bawang,ANS/KJS,O/C,green onions,,Compound
hing bawang,ANS/KJS,O/C,onions,,Compound
holi ujan,ANS/KJS,O/C,hail,,Compound
kawaca,ANS/SAN,O/C,shield,盾; 防牌,Compound
dowjek (ji) pisaw,ANS/SIN,O/C,spear,槍,Compound
alkohol,ARA,O/C,alcohol,酒,Arabic
apjadu,ARA,O/C,abjad,子音文字,Arabic
ibilisi,ARA,O/C,demon; being of evil,,Arabic
aca,KJS,O/C,morning,朝,Koreo-Japonic
aka,KJS,O/C,"baby, infant, toddler",乳兒,Koreo-Japonic
aki,KJS,O/C,"autumn, fall",秋,Koreo-Japonic
along,KJS,Qual,color / stain,色,Koreo-Japonic
amahi,KJS,Qual,"yummy, tasty, sweet",甘; 糖,Koreo-Japonic
anumi,KJS,O/C,darkness,,Koreo-Japonic
apae,KJS,Qual,forward; before; ahead,前,Koreo-Japonic
atwi,KJS,Qual,backward; after; behind,後,Koreo-Japonic
bala,KJS,O/C,plains; land,原,Koreo-Japonic
bam,KJS,O/C,evening; night,夜,Koreo-Japonic
bati,KJS,O/C,bees; insects in general,蜂,Koreo-Japonic
boti,KJS,O/C,star,星,Koreo-Japonic
bu'e,KJS,O/C,"boat, ship",舟,Koreo-Japonic
cici,KJS,O/C,"breasts (informal, infantile)",奶,Koreo-Japonic
ciciko,KJS,O/C,nipple,乳頭,Koreo-Japonic
dolong,KJS,Qual,"mud, dirty",泥,Koreo-Japonic
fao,KJS,Qual,blue-green,靑,Koreo-Japonic
fikali,KJS,O/C,"shine, glow, light",光;明,Koreo-Japonic
fone,KJS,O/C,bone,骨,Koreo-Japonic
fuca,KJS,O/C,grass,草,Koreo-Japonic
fuwa,KJS,Qual,"soft, fluffy",,Koreo-Japonic
ga'o,KJS,O/C,river,江; 川,Koreo-Japonic
gudu,KJS,O/C,"shoes, boots, footwear",,Koreo-Japonic
haka,KJS,Qual,red,赤; 紅,Koreo-Japonic
haon,KJS,O/C,spring,春,Koreo-Japonic
hayang,KJS,Qual,"fast, quick, early",速,Koreo-Japonic
heta'e,KJS,Qual,"down, below, under",下,Koreo-Japonic
hing,KJS,Qual,white,白,Koreo-Japonic
holi,KJS,O/C,ice,氷,Koreo-Japonic
hoyul,KJS,O/C,winter,冬,Koreo-Japonic
ifa,KJS,O/C,leaf,葉,Koreo-Japonic
kalakala,KJS,Qual,spicy,辛; 辣,Koreo-Japonic
kama,KJS,O/C,pot,釜,Koreo-Japonic
kamwi,KJS,O/C,god (polytheism); being of good,,Koreo-Japonic
kana,KJS,O/C,"Japanese kana, syllabary",音節文字,Koreo-Japonic
kayu,KJS,Action,keep (an animal) ; herd,,Koreo-Japonic 
kelu,KJS,Action,to cut,切; 斬,Koreo-Japonic
keluko,KJS,O/C,sword,刀劍,Compound
kicune,KJS,O/C,fox,,Koreo-Japonic
ko,KJS,O/C,this,,Koreo-Japonic
koci,KJS,O/C,"tip (object), twist (literary) ",,Koreo-Japonic
koma,KJS,O/C,bear,熊,Koreo-Japonic
kong,KJS,O/C,"kid, child, children",小人; 兒孩,Koreo-Japonic
kot,KJS,O/C,place / space,地;位置,Koreo-Japonic
kot,KJS,O/C,thing,,Koreo-Japonic
kubi,KJS,O/C,"neck, throat",,Koreo-Japonic
kung,KJS,Qual,black,黑,Koreo-Japonic
matwi,KJS,O/C,"village; town, rural, countryside",村,Koreo-Japonic
miji,KJS,O/C,rainbow,虹,Koreo-Japonic
muley,KJS,O/C,"group, crowd",群,Koreo-Japonic
mwisu,KJS,O/C,water,水,Koreo-Japonic
nehoy,KJS,Qual,"scent, smell",香,Koreo-Japonic
nifa,KJS,O/C,teeth,齒牙,Koreo-Japonic
numpa,KJS,O/C,pond; swamp,沼,Koreo-Japonic
nyatun,KJS,O/C,summer,夏,Koreo-Japonic
ogao,KJS,O/C,face,顔面,Koreo-Japonic
oji,KJS,O/C,sir,先生,Koreo-Japonic
omay,KJS,O/C,ma'am,夫人,Koreo-Japonic
otaw,KJS,Action,"sing, song",曲; 歌,Koreo-Japonic
otaw,KJS,O/C,"sing, song",曲; 歌,Koreo-Japonic
oton,KJS,O/C,adult,大人; 成人;,Koreo-Japonic
sisim,KJS,O/C,deer,鹿,Koreo-Japonic
suna,KJS,O/C,sand,沙,Koreo-Japonic
swi,KJS,Qual,sour,,Koreo-Japonic
syem,KJS,O/C,island,島,Koreo-Japonic
syoka,KJS,O/C,salt,鹽,Koreo-Japonic
syokamwisu,KJS,O/C,"unami fermented sauces (fish sauce, soy sauce, etc.)",醢?,Compound
tahi,KJS,O/C,time,時,Koreo-Japonic
tahi-tahi,KJS,O/C,sometimes,,Compound: Koreo-Japonic
tahi-tahi-dek,KJS,Qual,"often, habitually",,Compound: Koreo-Japonic
teley,KJS,Action,"carry, bring, move (something)",連,Koreo-Japonic
toli,KJS,O/C,"bird, fowl",鳥,Koreo-Japonic
towsagi,KJS,O/C,rabbit / hare,兎,Koreo-Japonic
unci,KJS,O/C,poop,糞,Koreo-Japonic
uwe,KJS,Qual,up,上,Koreo-Japonic
wajaw,KJS,Action,smile; laugh,,Koreo-Japonic
yame,KJS,O/C,mountain,山,Koreo-Japonic
bi'amahi,KJS/SIN,Qual,"bland, tasteless",不糖,Compound
aca (ji) sikko,N/A,O/C,breakfast,,Compound
apwiboti,N/A,O/C,Mars,,Compound
apwihali,N/A,O/C,tuesday,,Compound
baba,N/A,O/C,"dad, father, papa",父,N/A
bam (ji) sikko,N/A,O/C,dinner,,Compound
bobo,N/A,Qual,stupid,愚,Sound-based
bokul,N/A,Action,boil,蒸 ,Sound-based
camuk,N/A,Action,"chew, crush (in mouth)",,Sound-based
candahali,N/A,O/C,monday,,Compound
co,N/A,O/C,that,,N/A
codi,N/A,O/C,there,,Compound
cokcok,N/A,Action,"kiss, smooch, peck",,Sound-based
fulansio,N/A,O/C,french (language),,Compound
gam'ensya,N/A,,thank you,,N/A
gamjiboti,N/A,O/C,Venus,,Compound
gamjihali,N/A,O/C,friday,,Compound
hali (ji) sikko,N/A,O/C,lunch,,Compound
indonesyao,N/A,O/C,indonesian (language),,Compound
inglisio,N/A,O/C,english (language),,Compound
ko,N/A,O/C,portrusion (from an affixed noun),,N/A
kodi,N/A,O/C,here,,Compound
kwakwak,N/A,O/C,"duck, weird, strange",鴨,Sound-based
lenken-ko,N/A,O/C,wrist,,Compound
losyao,N/A,O/C,russian (language),,Compound
malay'o,N/A,O/C,malaysian (language),,Compound
mama,N/A,O/C,"mom, mother, mama",母,N/A
mwisuboti,N/A,O/C,Mercury (planet),,Compound
mwisuhali,N/A,O/C,wednesday,,Compound
myaw,N/A,O/C,"cat, kitty",猫,Compound
nitjihali,N/A,O/C,sunday,,Compound
ponjiboti,N/A,O/C,Jupiter,,Compound
ponjihali,N/A,O/C,thursday,,Compound
sikko,N/A,O/C,"food, meal",,Compound
sokosoko,N/A,Action,"whisper, mumur",,Sound-based
susuk,N/A,Action,"brush, polish, scrub",,Sound-based
syow,N/A,O/C,milk,乳; 酪,Compound
tagalog'o,N/A,O/C,tagalog,,Compound
tanaboti,N/A,O/C,Saturn,,Compound
tanahali,N/A,O/C,saturday,,Compound
tay'o,N/A,O/C,thai (language),,Compound
uncikaki,N/A,O/C,ankle biters; bad children,惡童,Compound
aksala,SAN,O/C,"alphabet, abugida",音素文字,Sanskrit
baci,SAN,O/C,lightening,雷,Sanskrit
bacim,SAN,Qual,west,西,Sanskrit
canda,SAN,O/C,"month, moon",,Sanskrit
cita,SAN,O/C,mind,精神; 心理,Sanskrit
citawita,SAN,O/C,psychology,心理學,Sanskrit
gaja,SAN,O/C,elephant,象,Sanskrit
ganitasat,SAN,O/C,math,,Sanskrit
hima,SAN,O/C,snow,雪,Sanskrit
kalapipal,SAN,O/C,chile pepper,,Compound
kilesa,SAN,O/C,sin; stress; emotional damage,,Sanskrit
kong pipal,SAN,O/C,black pepper,,Compound
laja,SAN,O/C,king,,Sanskrit
lajasaci,SAN,O/C,queen (wife of king),,Sanskrit
lodu,SAN,O/C,season,季節,Sanskrit
maha,SAN,Qual,expensive,,Sanskrit
manusya,SAN,O/C,human,人間; 人類,Sanskrit
naga,SAN,O/C,"naga, dragon",龍,Sanskrit
nagan,SAN,O/C,city,市,Sanskrit
nala,SAN,O/C,man; male,男子; 男性,Sanskrit
pal,SAN,O/C,fruit,果; 菓,Sanskrit
pasawa,SAN,O/C,urine; pee,尿,Sanskrit
pipal,SAN,O/C,pepper,,Sanskrit
puba,SAN,Qual,east,東,Sanskrit
saci,SAN,O/C,woman; female,女子; 女性,Sanskrit
sacilaja,SAN,O/C,queen (female ruler),,Sanskrit
sap,SAN,O/C,word; to talk; to claim; voice,言; 聲,Sanskrit
sata,SAN,Action,to know,,Sanskrit
sata,SAN,O/C,knowledge,,Sanskrit
satu,SAN,O/C,enemy,敵,Sanskrit
singa,SAN,O/C,lion,獅子,Sanskrit
taksin,SAN,Qual,south,南,Sanskrit
utala,SAN,Qual,north,北,Sanskrit
winyan,SAN,O/C,soul,靈魂,Sanskrit
witasat,SAN,O/C,science ,,Sanskrit
cita ji beng,SAN/SIN,O/C,mental illness,,Compound
anjwen,SIN,Qual,safe,安全,Sinitic
anmen,SIN,O/C,face (human),顔面,Sinitic
ay,SIN,Action,love,愛,Sinitic
bama,SIN,O/C,parents,父母,Sinitic
bamhap,SIN,Qual,together,凡合,Sinitic
banbun,SIN,O/C,half,半分,Sinitic
bat,SIN,O/C,eight,八,Sinitic
bawho,SIN,Action,"protect, cherish",保護,Sinitic
bawyu,SIN,Action,"have, possess",保有,Sinitic
bay,SIN,O/C,cup,杯,Sinitic
bay,SIN,O/C,back,背,Sinitic
baybok,SIN,Action,lose,敗北,Sinitic
bek,SIN,O/C,hundred,百,Sinitic
bekhap,SIN,O/C,"lily, lesbian (slang) ",百合,Sinitic
bekhongsik,SIN,Qual,pink,緣紅,Sinitic
beksik,SIN,Qual,white,白色,Sinitic
ben,SIN,Action,"change, edit, alter",變,Sinitic
beng,SIN,O/C,"sick, illness",病,Sinitic
bengtan,SIN,Qual,flat,平坦,Sinitic
benmay,SIN,Action,"sell, trade",販賣,Sinitic
benmey,SIN,O/C,rice,飯米,Sinitic
bentay,SIN,Qual,"perverse, hentai, pervert",変態,Sinitic
betgen,SIN,Action,find,發見,Sinitic
betgyaw,SIN,Action,fermenting,醱酵,Sinitic
bey,SIN,Action,close; shut,閉,Sinitic
biay,SIN,Qual,"sad, sorrow, grief",悲哀,Sinitic
bigyaw,SIN,Action,"compare, comparison",比較,Sinitic
bihenggi,SIN,O/C,airplane,飛行機,
binkon,SIN,Qual,poor,貧困,Sinitic
bityaw,SIN,Action,need,必要,Sinitic
boncow,SIN,O/C,herbs,本草,Sinitic
bongmit,SIN,O/C,honey,蜂蜜,Sinitic
bunsek,SIN,Action,analyze; (ling) Analytic,分析,Sinitic
busyang,SIN,Action,"injure, get hurt",負傷,Sinitic
butaw,SIN,Action,dislike,不好,Sinitic
buthaw,SIN,Action,dislike,不好,Sinitic
buyu,SIN,Qual,"rich, wealthy",富有,Sinitic
cawwet,SIN,Qual,"surpass, go beyond, overcome, transcend",超越,Sinitic
cay'i,SIN,O/C,difference,差異,Sinitic
caycu,SIN,Action,"harvest, collect, gather",採取,Sinitic
cen,SIN,O/C,thousand,千,Sinitic
cengcu,SIN,Action,"hear, listen",聽取,Sinitic
cenglamsik,SIN,Qual,blue,靑覽色,Sinitic
cengloksik,SIN,Qual,green,靑綠色,Sinitic
cengsik,SIN,Qual,blue-green,靑色,Sinitic
cetcu,SIN,Action,steal,竊取,Sinitic
cimjang,SIN,O/C,bed,寢床; 寢牀,Sinitic
cinyu,SIN,O/C,friend,親友,Sinitic
cisyang,SIN,Action,stab,刺傷,Sinitic
cit,SIN,O/C,seven,七,Sinitic
coba,SIN,O/C,"grandpa, grandfather",祖父,Sinitic
cobama,SIN,O/C,"grandparents, elders",祖父母,Sinitic
coma,SIN,O/C,"grandma, grandmother",祖母,Sinitic
coy,SIN,Action,help,助,Sinitic
cu,SIN,Action,"catch, grab, hunt",取,Sinitic
cucut,SIN,Action,"take out, pluck, remove, delete",取出,Sinitic
cuk,SIN,Action,"poke, pick at (something), touch",觸,Sinitic
cutkow,SIN,O/C,exit,出口,
da,SIN,Qual,"more, many, a lot",多,Sinitic
dadan,SIN,Qual,short,多短,Sinitic
dajang,SIN,Qual,tall,多長,Sinitic
danggwa,SIN,O/C,"candy, sweets",糖菓,Sinitic
dawdaw,SIN,O/C,peach,桃,Sinitic
dawgu,SIN,O/C,tools,道具,Sinitic
dawmang,SIN,Action,"flee, run away, escape",逃亡,Sinitic
dawtat,SIN,Action,arrive,到達,Sinitic
day,SIN,Qual,"big, large",大,Sinitic
daygun,SIN,O/C,"archduke, prince consort",大君,Sinitic
dayhak,SIN,O/C,"college, university",大學,Sinitic
dayho,SIN,O/C,lake; inland sea,大湖,Sinitic
deng,SIN,Action,wait,待,
denggek,SIN,Action,"punch, hit, slap",打擊,Sinitic
dengji,SIN,Action,"stop, end, cease, turn off",停止,Sinitic
deydey,SIN,O/C,younger brother,弟弟,Sinitic
digyow,SIN,O/C,earth (planet),地球,Sinitic
dok,SIN,Action,read,讀,Sinitic
dongmut,SIN,O/C,animal,動物,Sinitic
dowjek,SIN,Action,throw,投擲,Sinitic
downaw,SIN,O/C,brain,頭腦,Sinitic
dyawmu,SIN,Action,dance,跳舞,Sinitic
dyawyak,SIN,Action,jump,跳躍,Sinitic
en'o,SIN,O/C,language,言語,Sinitic
eng'ung,SIN,O/C,hero,英雄,Sinitic
gajek,SIN,O/C,"house, home",家宅,Sinitic
gaji,SIN,O/C,"value, worth, price",價値,Sinitic
gak,SIN,Action,carve,刻,Sinitic
gam,SIN,O/C,gold,金,Sinitic
gamgak,SIN,Action,"feel, sense",感覺,Sinitic
gamsya,SIN,Action,"thank, thanking",感謝,Sinitic
gandan,SIN,Qual,"easy, simple",簡單,Sinitic
gawgyaw,SIN,O/C,high school,高校,Sinitic
gaynem,SIN,O/C,"idea, concept, noun, O/C",槪念,Sinitic
genki,SIN,O/C,full-feeling; feeling good,元氣,Sinitic
geylwan,SIN,O/C,egg,鷄卵,Sinitic
geysuk,SIN,Action,"continue, keep (verb)",繼續,Sinitic
geyswan,SIN,Action,calculate,計算,Sinitic
giik,SIN,Action,"remember, recall",記憶,Sinitic
gim'suk,SIN,O/C,metal,金屬,Sinitic
gimsi,SIN,O/C,now,今時,Sinitic
gimya,SIN,O/C,tonight,今夜,Sinitic
ginsi,SIN,O/C,soon; recently,近侍,Sinitic
gip,SIN,Action,give,給,Sinitic
gokga,SIN,O/C,nation,國家,Sinitic
golaw,SIN,Qual,"old, elder",古老,Sinitic
gongki,SIN,O/C,air,空氣,Sinitic
gowjaw,SIN,O/C,structure,構造,Sinitic
gowmay,SIN,Action,buy,購買,Sinitic
gwa'o,SIN,O/C,mistake,過誤,Sinitic
gwada,SIN,Qual,"extra, excess, remaining",過多,Sinitic
gwada syumen,SIN,Action,"oversleep, sleep in",過多睡眠,Sinitic
gwaysyow,SIN,O/C,monster; beast,怪獸,Sinitic
gwetdeng,SIN,Action,"decide, pick, choose",決定,Sinitic
gwisin,SIN,O/C,spirits; ghosts,鬼神,Sinitic
gyanglik,SIN,Qual,strong,強力,
gyawyuk,SIN,Action,"teach, inform, tell",敎育,Sinitic
hajong,SIN,O/C,downstairs; lower class,下層,Sinitic
hakdem,SIN,O/C,grade points (school),學点,Sinitic
hakgi,SIN,O/C,"semester, trimester, term ",學期,Sinitic
hakgip,SIN,O/C,class/grade (school),學級,Sinitic
hakgyaw,SIN,O/C,school,學校 ,Sinitic
hakseng,SIN,O/C,student,學生,Sinitic
haksip,SIN,Action,"learn, study",學習,Sinitic
hangha,SIN,Action,"to drop, fall",降下,Sinitic
hangok'o,SIN,O/C,korean (language),韓國語,Sinitic
haw,SIN,Action,like,好,Sinitic
haw,SIN,Qual,good; pleasing,好,Sinitic
hayben,SIN,O/C,beach,海邊,Sinitic
heksik,SIN,Qual,black,黑色,Sinitic
hem,SIN,Action,hate,嫌,Sinitic
heng,SIN,Action,do; go,行,Sinitic
hengdey,SIN,O/C,"brothers, siblings in general",兄弟,Sinitic
hengheng,SIN,O/C,older brother,兄兄,Sinitic
himwang,SIN,Action,hope,希望,Sinitic
ho,SIN,Action,call,呼,Sinitic
ho'jaw,SIN,O/C,pond; swamp,湖沼,Sinitic
hoen,SIN,Action,to (tell a) lie,虛言,Sinitic
hohip,SIN,Action,"breathe, breath",呼吸,Sinitic
hongsik,SIN,Qual,red,紅色,Sinitic
hwan'eng,SIN,Action,"welcome, reception",歡迎 ,Sinitic
hwangsik,SIN,Qual,yellow,黃色,Sinitic
hwaybi,SIN,Action,"hide, avoid",回避,Sinitic
hwaydap,SIN,Action,"answer, reply",回答,Sinitic
hwaylay,SIN,Action,to return,回來,Sinitic
hwaymen,SIN,O/C,screen,畵面,Sinitic
hwetgwan,SIN,O/C,blood vessels,血管,Sinitic
hyowsik,SIN,Action,rest,休息,Sinitic
i'buk,SIN,O/C,"clothes, clothing",衣服,Sinitic
iba,SIN,O/C,uncle,異父,Sinitic
idong,SIN,Action,move,移動,Sinitic
ihengdey,SIN,O/C,cousins,異兄弟,Sinitic
iknit,SIN,O/C,tomorrow,翌日,Sinitic
ima,SIN,O/C,aunt,異母,Sinitic
imak,SIN,O/C,music,音樂,Sinitic
imlaw,SIN,O/C,"drink, beverage",飲料,Sinitic
imlyaw,SIN,O/C,"drink, beverage",飲料,Sinitic
it,SIN,O/C,one,一,Sinitic
jacik,SIN,Qual,left,左,Sinitic
jaknit,SIN,O/C,yesterday,昨日,Sinitic
jangdan,SIN,O/C,length; height,長短,Sinitic
jangki,SIN,O/C,"organs, intestines",臟器,Sinitic
jenghwangsik,SIN,Qual,orange (color),橙黃色,Sinitic
jidongca,SIN,O/C,"car, automobile",自動車,Sinitic
jihongsik,SIN,Qual,purple,紫紅,Sinitic
jiji,SIN,O/C,older sister,姉姉,Sinitic
jikep,SIN,Action,"work, job, career",職業,Sinitic
jikjep,SIN,Qual,directly,直接,Sinitic
jiksen,SIN,Qual,straight,直線,Sinitic
jikwi,SIN,Action,ascend (to the throne),卽位,Sinitic
jilyaw,SIN,Action,"heal, fix",治療,Sinitic
jimay,SIN,O/C,sisters,姉妹,Sinitic
jimun,SIN,Action,ask,質問,Sinitic
jimut,SIN,O/C,cloth,織物,Sinitic
jinen,SIN,Qual,"nature, natural",自然,Sinitic
jingki,SIN,O/C,steam,蒸氣,Sinitic
jinsit,SIN,Qual,"really, very, true, actual",眞實,Sinitic
jisin,SIN,O/C,self,自身,Sinitic
jitsik,SIN,Action,"choke (on something, e.g. food), choking; suffocate; asphyxia",窒息,Sinitic
jiyu,SIN,O/C,freedom,自由,
joji,SIN,O/C,chopstick,箸子,Sinitic
jong,SIN,O/C,floors (of a building),層,Sinitic
jonggyaw,SIN,O/C,religion,宗敎,Sinitic
jonjay,SIN,Action,exist,存在,Sinitic
jow,SIN,O/C,week,週,Sinitic
jow'jung,SIN,O/C,weekday,週中,Sinitic
jow'mat,SIN,O/C,weekend,週末,Sinitic
junbi,SIN,Action,"prepare, get ready",準備,Sinitic
jung,SIN,Qual,middle,中,Sinitic
junggok'o,SIN,O/C,chinese (language),中國語,Sinitic
jungji,SIN,O/C,seed,種子,Sinitic
jwa,SIN,Action,sit,坐,Sinitic
jway'ay,SIN,Qual,favorite,最愛,Sinitic
jwaygun,SIN,O/C,"recently, lately",最近,Sinitic
jwayhow,SIN,O/C,"last, final, conclusion, end",最後,Sinitic
kaknin,SIN,Action,check (something),確認,Sinitic
kanbeng,SIN,Action,"take care of, nurse",看病,Sinitic
kaybang,SIN,Action,open,開放,Sinitic
kaysi,SIN,Action,"start, to turn on, begin",開始,Sinitic
ken,SIN,Action,look / see,見;觀,Sinitic
kibit,SIN,Action,write,記,Sinitic
kibun,SIN,O/C,feeling,氣分,Sinitic
kijang,SIN,Action,"wake up, getting up (from bed)",起床,Sinitic
konghong,SIN,O/C,airport,空港,Sinitic
kotong,SIN,O/C,"pain, agony",苦痛,Sinitic
kow,SIN,O/C,nine,九,Sinitic
ku,SIN,Qual,old,久,Sinitic
kyo,SIN,Action,"go, pass (e.g. days)",去,Sinitic
lay,SIN,Action,come,來,Sinitic
leng,SIN,Qual,cool (literal and as English slang) ,冷,Sinitic
lensip,SIN,Action,practice,練習,Sinitic
letca,SIN,O/C,train,列車,
ley,SIN,O/C,example,例,Sinitic
ligay,SIN,Action,"understand, comprehend",理解,Sinitic
lip,SIN,Action,"stand, to rise, to lift, grow",立,Sinitic
lip,SIN,O/C,"elevator, a lift",口+立,Sinitic
luk,SIN,O/C,six,六,Sinitic
lwisi,SIN,Action,"like, similar",類似,Sinitic
lyawli,SIN,Action,to cook,料理,Sinitic
mabap,SIN,O/C,magic,魔法,Sinitic
man,SIN,O/C,"ten-thousand, (poetic) all",萬,Sinitic
mang,SIN,Qual,busy,忙,Sinitic
mangkyak,SIN,Action,forget,忘却,Sinitic
manhwa,SIN,O/C,"comics, manga",漫畵,Sinitic
manmin,SIN,O/C,everyone,萬民,Sinitic
maymay,SIN,O/C,younger sister,妹妹,Sinitic
maynen,SIN,,"yearly, every year",每年,Sinitic
maynit,SIN,O/C,"everyday, daily",每日,Sinitic
mengji,SIN,O/C,name,名字,Sinitic
mi,SIN,,"still, yet",未,Sinitic
miley,SIN,Qual,beautiful,美麗,Sinitic
moji,SIN,O/C,hat,帽子,Sinitic
mong,SIN,Action,dream,夢,Sinitic
mu,SIN,Qual,"absence, without",無,Sinitic
mun,SIN,O/C,sentence,文,Sinitic
munbap,SIN,O/C,grammar,文法,Sinitic
mundey,SIN,O/C,"problem, issue",問題,Sinitic
munhak,SIN,O/C,Literature,文學,Sinitic
munji,SIN,O/C,"letters, script, writing system, morpheme",文字,Sinitic
mway'u,SIN,O/C,monsoon,梅雨,Sinitic
namsek,SIN,O/C,"gay, male homosexuality",男色,Sinitic
nangay,SIN,Qual,"difficult, hard (task), tough",難解,Sinitic
nay,SIN,Qual,inside,內,Sinitic
nemjak,SIN,Action,"sticky, (ling) Agglutinative",粘着,Sinitic
nenglik,SIN,O/C,"ability, talent",能力,Sinitic
ni,SIN,O/C,two,二,Sinitic
nimsin,SIN,O/C,"pregnancy, conception",妊娠,Sinitic
ninsik,SIN,Action,recognize,認識,Sinitic
nipkow,SIN,O/C,enterance,入口,
nitbon'o,SIN,O/C,japanese (language),日本語,Sinitic
nitcut,SIN,Action,sunrise,日出,Sinitic
nitsyang,SIN,Qual,"daily life, ordinary",日常,Sinitic
o,SIN,O/C,five,五,Sinitic
pagway,SIN,Action,"destroy, break",破壞,Sinitic
penyek,SIN,Action,translate,飜譯,Sinitic
penyek-ko,SIN,O/C,the translation,飜譯,Compound
puyuk,SIN,Action,"raise, grow",撫育,Sinitic
sadang,SIN,O/C,brown sugar,沙糖,Sinitic
sam,SIN,O/C,three,三,Sinitic
sanbo,SIN,Action,walk,散步,Sinitic
sathay,SIN,Action,"kill, murder",殺害,Sinitic
sekyang,SIN,Action,sunset,夕陽,Sinitic
senghwa,SIN,Acion,"become, turn into, becoming",成化,Sinitic
senghwat,SIN,Action,to live life,生活,Sinitic
sengmeng,SIN,O/C,life,生命,Sinitic
sengmeng yu,SIN,Action,to have life,生命 有,Sinitic
senseng,SIN,O/C,teacher,先生,Sinitic
setdang,SIN,O/C,white sugar,雪糖,Sinitic
seydek,SIN,Action,"wash, clean",洗滌,Sinitic
si,SIN,O/C,four,四,Sinitic
siden,SIN,O/C,dictionary,辭典,Sinitic
sido,SIN,Action,try,試圖,Sinitic
sik,SIN,Action,"eat, drink, swallow",食,Sinitic
sikaw,SIN,Action,think,思考,Sinitic
sikcit,SIN,Action,"draw, paint",色漆,Sinitic
sikmut,SIN,O/C,"plant, vegetation",植物,Sinitic
simang,SIN,Action,"die, death, pass away",死亡,Sinitic
simga,SIN,Action,"join, participate",參加,Sinitic
sin,SIN,Qual,new,新,Sinitic
singli,SIN,Action,win,勝利,Sinitic
sip,SIN,O/C,ten,十,Sinitic
sitlik,SIN,O/C,"skill, talent",實力,Sinitic
socek,SIN,O/C,book,書冊,Sinitic
susi,SIN,O/C,numbers,數詞,Sinitic
"swa, s'wa",SIN,Action,"become, to be transformed",成化,Sinitic
swansu,SIN,Action,"count, numbering",計数,Sinitic
syang'ep,SIN,O/C,business; trade; commerce,商業,Sinitic
syangdey,SIN,O/C,God (monotheism); supreme good,上帝,Sinitic
syangjong,SIN,O/C,upstairs; upper class,上層,Sinitic
syangsing,SIN,Action,to lift,上昇,Sinitic
syaw,SIN,Qual,small; less,"小, 少",Sinitic
syawgay,SIN,Action,introduce,紹介,Sinitic
syawnen,SIN,O/C,boy,少年,Sinitic
syawnyo,SIN,O/C,girl,少女,Sinitic
syowcu,SIN,Action,receive,受取,Sinitic
syowep,SIN,,"lesson, a class",授業,Sinitic
syumen,SIN,Action,sleep,睡眠,Sinitic
syumen-wan-in,SIN,Qual,"tired, sleepy",睡眠願,Sinitic
syunso,SIN,O/C,order (in a series),順序,Sinitic
syuweng,SIN,Action,swim,水泳,Sinitic
tangsi,SIN,O/C,spoon,湯匙,Sinitic
tanseng,SIN,Action,to be born; birth,誕生,Sinitic
tayfung,SIN,O/C,storm,颱風,Sinitic
tenki,SIN,,weather,天氣,Sinitic
tensi,SIN,O/C,angel; agent of the order and good,天使,Sinitic
teyjung,SIN,Qual,weight,體重,Sinitic
tofu,SIN,O/C,tofu,豆腐,Sinitic
tow'meng,SIN,Qual,"clear, transparent",透明,Sinitic
tya,SIN,O/C,tea,茶,Sinitic
unjen,SIN,Action,drive (e.g. a car),運轉,Sinitic
wak,SIN,O/C,wok,鑊,Sinitic
wan,SIN,Action,want,願,Sinitic
wankuk,SIN,Action,bend,彎曲,Sinitic
watnam'o,SIN,O/C,vietnamese (language),越南語,Sinitic
wihem,SIN,Qual,danger,危險,Sinitic
wihem,SIN,Qual,dangerous,危險,Sinitic
yacay,SIN,O/C,science ,野菜,Sinitic
yaksuk,SIN,Action,promise,約束,Sinitic
yaway,SIN,O/C,"outdoors, outside",野外,Sinitic
yowsyaw,SIN,Qual,young,幼少,Sinitic
yucik,SIN,Qual,right (direction),右,Sinitic
basu,WES,O/C,bus,,Western: English
bulengket,WES,O/C,blanket,,Western: English
calenji,WES,Action,challenge,,Western: English
geymu,WES,O/C,game,,Western: English
intanet,WES,O/C,internet,,Western: English
jaket,WES,O/C,jacket,,Western: English
kamela,WES,O/C,camera,,Western: English
kamisa,WES,O/C,"shirt, top",,Western: Spanish
kibot,WES,O/C,keyboard,,Western: English
kompyuta,WES,O/C,computer,,Western: English
kontulola,WES,O/C,controller,,Western: English
lagu,WES,O/C,lag,,Western: English
mawsu,WES,O/C,mouse (computing) ,,Western: English
onlain,WES,Qual,online,,Western: English
pang,WES,O/C,bread,餠,Western: Portuguese
pantalon,WES,O/C,pants,,Western: Spanish
pilo,WES,O/C,pillow,,Western: English
saba,WES,O/C,server,,Western: English
satan,WES,O/C,Satan; supreme evil,,Western: English
supika,WES,O/C,speaker (computing),,Western: English
syensi,WES,O/C,science,,Western: English
tabako,WES,O/C,"cigarette, tabaco",煙草,Western: Spanish
taksi,WES,O/C,taxi,,Western: English
